^C:\USERS\NIKOL\DOCUMENTS\RGRV\RGRV\LV5\2DTO3D.CPP|C:\USERS\NIKOL\DOCUMENTS\RGRV\RGRV\LV5\CAMERACALIBRATION.CPP|C:\USERS\NIKOL\DOCUMENTS\RGRV\RGRV\LV5\MAIN.CPP
C:\USERS\NIKOL\DOCUMENTS\RGRV\RGRV\LV5\X64\DEBUG\VC142.PDB
C:\USERS\NIKOL\DOCUMENTS\RGRV\RGRV\LV5\X64\DEBUG\VC142.IDB
C:\USERS\NIKOL\DOCUMENTS\RGRV\RGRV\LV5\X64\DEBUG\CAMERACALIBRATION.OBJ
C:\USERS\NIKOL\DOCUMENTS\RGRV\RGRV\LV5\X64\DEBUG\2DTO3D.OBJ
^C:\USERS\NIKOL\DOCUMENTS\RGRV\RGRV\LV5\2DTO3D.CPP
C:\USERS\NIKOL\DOCUMENTS\RGRV\RGRV\LV5\X64\DEBUG\2DTO3D.OBJ
^C:\USERS\NIKOL\DOCUMENTS\RGRV\RGRV\LV5\CAMERACALIBRATION.CPP
C:\USERS\NIKOL\DOCUMENTS\RGRV\RGRV\LV5\X64\DEBUG\CAMERACALIBRATION.OBJ
^C:\USERS\NIKOL\DOCUMENTS\RGRV\RGRV\LV5\MAIN.CPP|C:\USERS\NIKOL\DOCUMENTS\RGRV\RGRV\LV5\RANSAC3PLANES.CPP
C:\USERS\NIKOL\DOCUMENTS\RGRV\RGRV\LV5\X64\DEBUG\VC142.PDB
C:\USERS\NIKOL\DOCUMENTS\RGRV\RGRV\LV5\X64\DEBUG\VC142.IDB
C:\USERS\NIKOL\DOCUMENTS\RGRV\RGRV\LV5\X64\DEBUG\RANSAC3PLANES.OBJ
^C:\USERS\NIKOL\DOCUMENTS\RGRV\RGRV\LV5\MAIN.CPP
C:\USERS\NIKOL\DOCUMENTS\RGRV\RGRV\LV5\X64\DEBUG\VC142.PDB
C:\USERS\NIKOL\DOCUMENTS\RGRV\RGRV\LV5\X64\DEBUG\VC142.IDB
C:\USERS\NIKOL\DOCUMENTS\RGRV\RGRV\LV5\X64\DEBUG\MAIN.OBJ
