^C:\USERS\NIKOL\DOCUMENTS\RGRV\RGRV\LV4\LV4\MAIN.CPP
C:\USERS\NIKOL\DOCUMENTS\RGRV\RGRV\LV4\LV4\X64\DEBUG\VC142.PDB
C:\USERS\NIKOL\DOCUMENTS\RGRV\RGRV\LV4\LV4\X64\DEBUG\VC142.IDB
C:\USERS\NIKOL\DOCUMENTS\RGRV\RGRV\LV4\LV4\X64\DEBUG\MAIN.OBJ
