^C:\USERS\NIKOLA\DOCUMENTS\RGRV\LV2\LV2\LV2\LV2.CPP
C:\USERS\NIKOLA\DOCUMENTS\RGRV\LV2\LV2\LV2\X64\DEBUG\VC142.PDB
C:\USERS\NIKOLA\DOCUMENTS\RGRV\LV2\LV2\LV2\X64\DEBUG\VC142.IDB
C:\USERS\NIKOLA\DOCUMENTS\RGRV\LV2\LV2\LV2\X64\DEBUG\LV2.OBJ
