^C:\USERS\NIKOL\DOCUMENTS\RGRV\RGRV\LV4\LV4\MAIN.CPP
C:\WINDOWS\GLOBALIZATION\SORTING\SORTDEFAULT.NLS
C:\PROGRAM FILES (X86)\MICROSOFT VISUAL STUDIO\2019\COMMUNITY\VC\TOOLS\MSVC\14.28.29333\BIN\HOSTX86\X86\1033\CLUI.DLL
C:\WINDOWS\SYSTEM32\TZRES.DLL
C:\USERS\NIKOL\DOCUMENTS\RGRV_RESOURCES\OPENCV-3.4.4_X64\INCLUDE\OPENCV2\OPENCV.HPP
C:\USERS\NIKOL\DOCUMENTS\RGRV_RESOURCES\OPENCV-3.4.4_X64\INCLUDE\OPENCV2\OPENCV_MODULES.HPP
C:\USERS\NIKOL\DOCUMENTS\RGRV_RESOURCES\OPENCV-3.4.4_X64\INCLUDE\OPENCV2\CORE.HPP
C:\USERS\NIKOL\DOCUMENTS\RGRV_RESOURCES\OPENCV-3.4.4_X64\INCLUDE\OPENCV2\CORE\CVDEF.H
C:\PROGRAM FILES (X86)\MICROSOFT VISUAL STUDIO\2019\COMMUNITY\VC\TOOLS\MSVC\14.28.29333\INCLUDE\LIMITS.H
C:\PROGRAM FILES (X86)\MICROSOFT VISUAL STUDIO\2019\COMMUNITY\VC\TOOLS\MSVC\14.28.29333\INCLUDE\VCRUNTIME.H
C:\PROGRAM FILES (X86)\MICROSOFT VISUAL STUDIO\2019\COMMUNITY\VC\TOOLS\MSVC\14.28.29333\INCLUDE\SAL.H
C:\PROGRAM FILES (X86)\MICROSOFT VISUAL STUDIO\2019\COMMUNITY\VC\TOOLS\MSVC\14.28.29333\INCLUDE\CONCURRENCYSAL.H
C:\PROGRAM FILES (X86)\MICROSOFT VISUAL STUDIO\2019\COMMUNITY\VC\TOOLS\MSVC\14.28.29333\INCLUDE\VADEFS.H
C:\USERS\NIKOL\DOCUMENTS\RGRV_RESOURCES\OPENCV-3.4.4_X64\INCLUDE\OPENCV2\CORE\HAL\INTERFACE.H
C:\PROGRAM FILES (X86)\MICROSOFT VISUAL STUDIO\2019\COMMUNITY\VC\TOOLS\MSVC\14.28.29333\INCLUDE\CSTDDEF
C:\PROGRAM FILES (X86)\MICROSOFT VISUAL STUDIO\2019\COMMUNITY\VC\TOOLS\MSVC\14.28.29333\INCLUDE\YVALS_CORE.H
C:\PROGRAM FILES (X86)\MICROSOFT VISUAL STUDIO\2019\COMMUNITY\VC\TOOLS\MSVC\14.28.29333\INCLUDE\XKEYCHECK.H
C:\PROGRAM FILES (X86)\WINDOWS KITS\10\INCLUDE\10.0.18362.0\UCRT\STDDEF.H
C:\PROGRAM FILES (X86)\WINDOWS KITS\10\INCLUDE\10.0.18362.0\UCRT\CORECRT.H
C:\PROGRAM FILES (X86)\MICROSOFT VISUAL STUDIO\2019\COMMUNITY\VC\TOOLS\MSVC\14.28.29333\INCLUDE\XTR1COMMON
C:\USERS\NIKOL\DOCUMENTS\RGRV_RESOURCES\OPENCV-3.4.4_X64\INCLUDE\OPENCV2\CORE\CV_CPU_DISPATCH.H
C:\PROGRAM FILES (X86)\MICROSOFT VISUAL STUDIO\2019\COMMUNITY\VC\TOOLS\MSVC\14.28.29333\INCLUDE\EMMINTRIN.H
C:\PROGRAM FILES (X86)\MICROSOFT VISUAL STUDIO\2019\COMMUNITY\VC\TOOLS\MSVC\14.28.29333\INCLUDE\XMMINTRIN.H
C:\PROGRAM FILES (X86)\MICROSOFT VISUAL STUDIO\2019\COMMUNITY\VC\TOOLS\MSVC\14.28.29333\INCLUDE\MMINTRIN.H
C:\PROGRAM FILES (X86)\WINDOWS KITS\10\INCLUDE\10.0.18362.0\UCRT\MALLOC.H
C:\PROGRAM FILES (X86)\WINDOWS KITS\10\INCLUDE\10.0.18362.0\UCRT\CORECRT_MALLOC.H
C:\PROGRAM FILES (X86)\MICROSOFT VISUAL STUDIO\2019\COMMUNITY\VC\TOOLS\MSVC\14.28.29333\INCLUDE\INTRIN.H
C:\PROGRAM FILES (X86)\MICROSOFT VISUAL STUDIO\2019\COMMUNITY\VC\TOOLS\MSVC\14.28.29333\INCLUDE\INTRIN0.H
C:\PROGRAM FILES (X86)\MICROSOFT VISUAL STUDIO\2019\COMMUNITY\VC\TOOLS\MSVC\14.28.29333\INCLUDE\SETJMP.H
C:\PROGRAM FILES (X86)\MICROSOFT VISUAL STUDIO\2019\COMMUNITY\VC\TOOLS\MSVC\14.28.29333\INCLUDE\IMMINTRIN.H
C:\PROGRAM FILES (X86)\MICROSOFT VISUAL STUDIO\2019\COMMUNITY\VC\TOOLS\MSVC\14.28.29333\INCLUDE\WMMINTRIN.H
C:\PROGRAM FILES (X86)\MICROSOFT VISUAL STUDIO\2019\COMMUNITY\VC\TOOLS\MSVC\14.28.29333\INCLUDE\NMMINTRIN.H
C:\PROGRAM FILES (X86)\MICROSOFT VISUAL STUDIO\2019\COMMUNITY\VC\TOOLS\MSVC\14.28.29333\INCLUDE\SMMINTRIN.H
C:\PROGRAM FILES (X86)\MICROSOFT VISUAL STUDIO\2019\COMMUNITY\VC\TOOLS\MSVC\14.28.29333\INCLUDE\TMMINTRIN.H
C:\PROGRAM FILES (X86)\MICROSOFT VISUAL STUDIO\2019\COMMUNITY\VC\TOOLS\MSVC\14.28.29333\INCLUDE\PMMINTRIN.H
C:\PROGRAM FILES (X86)\MICROSOFT VISUAL STUDIO\2019\COMMUNITY\VC\TOOLS\MSVC\14.28.29333\INCLUDE\ZMMINTRIN.H
C:\PROGRAM FILES (X86)\MICROSOFT VISUAL STUDIO\2019\COMMUNITY\VC\TOOLS\MSVC\14.28.29333\INCLUDE\AMMINTRIN.H
C:\PROGRAM FILES (X86)\MICROSOFT VISUAL STUDIO\2019\COMMUNITY\VC\TOOLS\MSVC\14.28.29333\INCLUDE\MM3DNOW.H
C:\PROGRAM FILES (X86)\MICROSOFT VISUAL STUDIO\2019\COMMUNITY\VC\TOOLS\MSVC\14.28.29333\INCLUDE\ARRAY
C:\PROGRAM FILES (X86)\MICROSOFT VISUAL STUDIO\2019\COMMUNITY\VC\TOOLS\MSVC\14.28.29333\INCLUDE\XUTILITY
C:\PROGRAM FILES (X86)\MICROSOFT VISUAL STUDIO\2019\COMMUNITY\VC\TOOLS\MSVC\14.28.29333\INCLUDE\YVALS.H
C:\PROGRAM FILES (X86)\WINDOWS KITS\10\INCLUDE\10.0.18362.0\UCRT\CRTDBG.H
C:\PROGRAM FILES (X86)\MICROSOFT VISUAL STUDIO\2019\COMMUNITY\VC\TOOLS\MSVC\14.28.29333\INCLUDE\VCRUNTIME_NEW_DEBUG.H
C:\PROGRAM FILES (X86)\MICROSOFT VISUAL STUDIO\2019\COMMUNITY\VC\TOOLS\MSVC\14.28.29333\INCLUDE\VCRUNTIME_NEW.H
C:\PROGRAM FILES (X86)\MICROSOFT VISUAL STUDIO\2019\COMMUNITY\VC\TOOLS\MSVC\14.28.29333\INCLUDE\CRTDEFS.H
C:\PROGRAM FILES (X86)\MICROSOFT VISUAL STUDIO\2019\COMMUNITY\VC\TOOLS\MSVC\14.28.29333\INCLUDE\USE_ANSI.H
C:\PROGRAM FILES (X86)\MICROSOFT VISUAL STUDIO\2019\COMMUNITY\VC\TOOLS\MSVC\14.28.29333\INCLUDE\CLIMITS
C:\PROGRAM FILES (X86)\MICROSOFT VISUAL STUDIO\2019\COMMUNITY\VC\TOOLS\MSVC\14.28.29333\INCLUDE\CSTDLIB
C:\PROGRAM FILES (X86)\WINDOWS KITS\10\INCLUDE\10.0.18362.0\UCRT\MATH.H
C:\PROGRAM FILES (X86)\WINDOWS KITS\10\INCLUDE\10.0.18362.0\UCRT\CORECRT_MATH.H
C:\PROGRAM FILES (X86)\WINDOWS KITS\10\INCLUDE\10.0.18362.0\UCRT\STDLIB.H
C:\PROGRAM FILES (X86)\WINDOWS KITS\10\INCLUDE\10.0.18362.0\UCRT\CORECRT_SEARCH.H
C:\PROGRAM FILES (X86)\WINDOWS KITS\10\INCLUDE\10.0.18362.0\UCRT\CORECRT_WSTDLIB.H
C:\PROGRAM FILES (X86)\MICROSOFT VISUAL STUDIO\2019\COMMUNITY\VC\TOOLS\MSVC\14.28.29333\INCLUDE\CSTRING
C:\PROGRAM FILES (X86)\WINDOWS KITS\10\INCLUDE\10.0.18362.0\UCRT\STRING.H
C:\PROGRAM FILES (X86)\WINDOWS KITS\10\INCLUDE\10.0.18362.0\UCRT\CORECRT_MEMORY.H
C:\PROGRAM FILES (X86)\WINDOWS KITS\10\INCLUDE\10.0.18362.0\UCRT\CORECRT_MEMCPY_S.H
C:\PROGRAM FILES (X86)\WINDOWS KITS\10\INCLUDE\10.0.18362.0\UCRT\ERRNO.H
C:\PROGRAM FILES (X86)\MICROSOFT VISUAL STUDIO\2019\COMMUNITY\VC\TOOLS\MSVC\14.28.29333\INCLUDE\VCRUNTIME_STRING.H
C:\PROGRAM FILES (X86)\WINDOWS KITS\10\INCLUDE\10.0.18362.0\UCRT\CORECRT_WSTRING.H
C:\PROGRAM FILES (X86)\MICROSOFT VISUAL STUDIO\2019\COMMUNITY\VC\TOOLS\MSVC\14.28.29333\INCLUDE\UTILITY
C:\PROGRAM FILES (X86)\MICROSOFT VISUAL STUDIO\2019\COMMUNITY\VC\TOOLS\MSVC\14.28.29333\INCLUDE\TYPE_TRAITS
C:\PROGRAM FILES (X86)\MICROSOFT VISUAL STUDIO\2019\COMMUNITY\VC\TOOLS\MSVC\14.28.29333\INCLUDE\XSTDDEF
C:\PROGRAM FILES (X86)\MICROSOFT VISUAL STUDIO\2019\COMMUNITY\VC\TOOLS\MSVC\14.28.29333\INCLUDE\INITIALIZER_LIST
C:\PROGRAM FILES (X86)\MICROSOFT VISUAL STUDIO\2019\COMMUNITY\VC\TOOLS\MSVC\14.28.29333\INCLUDE\CSTDINT
C:\PROGRAM FILES (X86)\MICROSOFT VISUAL STUDIO\2019\COMMUNITY\VC\TOOLS\MSVC\14.28.29333\INCLUDE\STDINT.H
C:\USERS\NIKOL\DOCUMENTS\RGRV_RESOURCES\OPENCV-3.4.4_X64\INCLUDE\OPENCV2\CORE\VERSION.HPP
C:\USERS\NIKOL\DOCUMENTS\RGRV_RESOURCES\OPENCV-3.4.4_X64\INCLUDE\OPENCV2\CORE\BASE.HPP
C:\PROGRAM FILES (X86)\MICROSOFT VISUAL STUDIO\2019\COMMUNITY\VC\TOOLS\MSVC\14.28.29333\INCLUDE\ALGORITHM
C:\PROGRAM FILES (X86)\MICROSOFT VISUAL STUDIO\2019\COMMUNITY\VC\TOOLS\MSVC\14.28.29333\INCLUDE\XMEMORY
C:\PROGRAM FILES (X86)\MICROSOFT VISUAL STUDIO\2019\COMMUNITY\VC\TOOLS\MSVC\14.28.29333\INCLUDE\LIMITS
C:\PROGRAM FILES (X86)\MICROSOFT VISUAL STUDIO\2019\COMMUNITY\VC\TOOLS\MSVC\14.28.29333\INCLUDE\CFLOAT
C:\PROGRAM FILES (X86)\WINDOWS KITS\10\INCLUDE\10.0.18362.0\UCRT\FLOAT.H
C:\PROGRAM FILES (X86)\MICROSOFT VISUAL STUDIO\2019\COMMUNITY\VC\TOOLS\MSVC\14.28.29333\INCLUDE\CWCHAR
C:\PROGRAM FILES (X86)\MICROSOFT VISUAL STUDIO\2019\COMMUNITY\VC\TOOLS\MSVC\14.28.29333\INCLUDE\CSTDIO
C:\PROGRAM FILES (X86)\WINDOWS KITS\10\INCLUDE\10.0.18362.0\UCRT\STDIO.H
C:\PROGRAM FILES (X86)\WINDOWS KITS\10\INCLUDE\10.0.18362.0\UCRT\CORECRT_WSTDIO.H
C:\PROGRAM FILES (X86)\WINDOWS KITS\10\INCLUDE\10.0.18362.0\UCRT\CORECRT_STDIO_CONFIG.H
C:\PROGRAM FILES (X86)\WINDOWS KITS\10\INCLUDE\10.0.18362.0\UCRT\WCHAR.H
C:\PROGRAM FILES (X86)\WINDOWS KITS\10\INCLUDE\10.0.18362.0\UCRT\CORECRT_WCONIO.H
C:\PROGRAM FILES (X86)\WINDOWS KITS\10\INCLUDE\10.0.18362.0\UCRT\CORECRT_WCTYPE.H
C:\PROGRAM FILES (X86)\WINDOWS KITS\10\INCLUDE\10.0.18362.0\UCRT\CORECRT_WDIRECT.H
C:\PROGRAM FILES (X86)\WINDOWS KITS\10\INCLUDE\10.0.18362.0\UCRT\CORECRT_WIO.H
C:\PROGRAM FILES (X86)\WINDOWS KITS\10\INCLUDE\10.0.18362.0\UCRT\CORECRT_SHARE.H
C:\PROGRAM FILES (X86)\WINDOWS KITS\10\INCLUDE\10.0.18362.0\UCRT\CORECRT_WPROCESS.H
C:\PROGRAM FILES (X86)\WINDOWS KITS\10\INCLUDE\10.0.18362.0\UCRT\CORECRT_WTIME.H
C:\PROGRAM FILES (X86)\WINDOWS KITS\10\INCLUDE\10.0.18362.0\UCRT\SYS\STAT.H
C:\PROGRAM FILES (X86)\WINDOWS KITS\10\INCLUDE\10.0.18362.0\UCRT\SYS\TYPES.H
C:\PROGRAM FILES (X86)\MICROSOFT VISUAL STUDIO\2019\COMMUNITY\VC\TOOLS\MSVC\14.28.29333\INCLUDE\ISA_AVAILABILITY.H
C:\PROGRAM FILES (X86)\MICROSOFT VISUAL STUDIO\2019\COMMUNITY\VC\TOOLS\MSVC\14.28.29333\INCLUDE\NEW
C:\PROGRAM FILES (X86)\MICROSOFT VISUAL STUDIO\2019\COMMUNITY\VC\TOOLS\MSVC\14.28.29333\INCLUDE\EXCEPTION
C:\PROGRAM FILES (X86)\MICROSOFT VISUAL STUDIO\2019\COMMUNITY\VC\TOOLS\MSVC\14.28.29333\INCLUDE\VCRUNTIME_EXCEPTION.H
C:\PROGRAM FILES (X86)\MICROSOFT VISUAL STUDIO\2019\COMMUNITY\VC\TOOLS\MSVC\14.28.29333\INCLUDE\EH.H
C:\PROGRAM FILES (X86)\WINDOWS KITS\10\INCLUDE\10.0.18362.0\UCRT\CORECRT_TERMINATE.H
C:\PROGRAM FILES (X86)\MICROSOFT VISUAL STUDIO\2019\COMMUNITY\VC\TOOLS\MSVC\14.28.29333\INCLUDE\XATOMIC.H
C:\USERS\NIKOL\DOCUMENTS\RGRV_RESOURCES\OPENCV-3.4.4_X64\INCLUDE\OPENCV2\CORE\CVSTD.HPP
C:\PROGRAM FILES (X86)\MICROSOFT VISUAL STUDIO\2019\COMMUNITY\VC\TOOLS\MSVC\14.28.29333\INCLUDE\CCTYPE
C:\PROGRAM FILES (X86)\WINDOWS KITS\10\INCLUDE\10.0.18362.0\UCRT\CTYPE.H
C:\PROGRAM FILES (X86)\MICROSOFT VISUAL STUDIO\2019\COMMUNITY\VC\TOOLS\MSVC\14.28.29333\INCLUDE\STRING
C:\PROGRAM FILES (X86)\MICROSOFT VISUAL STUDIO\2019\COMMUNITY\VC\TOOLS\MSVC\14.28.29333\INCLUDE\XSTRING
C:\PROGRAM FILES (X86)\MICROSOFT VISUAL STUDIO\2019\COMMUNITY\VC\TOOLS\MSVC\14.28.29333\INCLUDE\IOSFWD
C:\PROGRAM FILES (X86)\MICROSOFT VISUAL STUDIO\2019\COMMUNITY\VC\TOOLS\MSVC\14.28.29333\INCLUDE\CMATH
C:\USERS\NIKOL\DOCUMENTS\RGRV_RESOURCES\OPENCV-3.4.4_X64\INCLUDE\OPENCV2\CORE\PTR.INL.HPP
C:\USERS\NIKOL\DOCUMENTS\RGRV_RESOURCES\OPENCV-3.4.4_X64\INCLUDE\OPENCV2\CORE\NEON_UTILS.HPP
C:\USERS\NIKOL\DOCUMENTS\RGRV_RESOURCES\OPENCV-3.4.4_X64\INCLUDE\OPENCV2\CORE\VSX_UTILS.HPP
C:\PROGRAM FILES (X86)\WINDOWS KITS\10\INCLUDE\10.0.18362.0\UCRT\ASSERT.H
C:\USERS\NIKOL\DOCUMENTS\RGRV_RESOURCES\OPENCV-3.4.4_X64\INCLUDE\OPENCV2\CORE\CHECK.HPP
C:\USERS\NIKOL\DOCUMENTS\RGRV_RESOURCES\OPENCV-3.4.4_X64\INCLUDE\OPENCV2\CORE\TRAITS.HPP
C:\USERS\NIKOL\DOCUMENTS\RGRV_RESOURCES\OPENCV-3.4.4_X64\INCLUDE\OPENCV2\CORE\MATX.HPP
C:\USERS\NIKOL\DOCUMENTS\RGRV_RESOURCES\OPENCV-3.4.4_X64\INCLUDE\OPENCV2\CORE\SATURATE.HPP
C:\USERS\NIKOL\DOCUMENTS\RGRV_RESOURCES\OPENCV-3.4.4_X64\INCLUDE\OPENCV2\CORE\FAST_MATH.HPP
C:\USERS\NIKOL\DOCUMENTS\RGRV_RESOURCES\OPENCV-3.4.4_X64\INCLUDE\OPENCV2\CORE\TYPES.HPP
C:\PROGRAM FILES (X86)\MICROSOFT VISUAL STUDIO\2019\COMMUNITY\VC\TOOLS\MSVC\14.28.29333\INCLUDE\VECTOR
C:\USERS\NIKOL\DOCUMENTS\RGRV_RESOURCES\OPENCV-3.4.4_X64\INCLUDE\OPENCV2\CORE\MAT.HPP
C:\USERS\NIKOL\DOCUMENTS\RGRV_RESOURCES\OPENCV-3.4.4_X64\INCLUDE\OPENCV2\CORE\BUFFERPOOL.HPP
C:\USERS\NIKOL\DOCUMENTS\RGRV_RESOURCES\OPENCV-3.4.4_X64\INCLUDE\OPENCV2\CORE\MAT.INL.HPP
C:\USERS\NIKOL\DOCUMENTS\RGRV_RESOURCES\OPENCV-3.4.4_X64\INCLUDE\OPENCV2\CORE\PERSISTENCE.HPP
C:\USERS\NIKOL\DOCUMENTS\RGRV_RESOURCES\OPENCV-3.4.4_X64\INCLUDE\OPENCV2\CORE\OPERATIONS.HPP
C:\USERS\NIKOL\DOCUMENTS\RGRV_RESOURCES\OPENCV-3.4.4_X64\INCLUDE\OPENCV2\CORE\CVSTD.INL.HPP
C:\PROGRAM FILES (X86)\MICROSOFT VISUAL STUDIO\2019\COMMUNITY\VC\TOOLS\MSVC\14.28.29333\INCLUDE\COMPLEX
C:\PROGRAM FILES (X86)\MICROSOFT VISUAL STUDIO\2019\COMMUNITY\VC\TOOLS\MSVC\14.28.29333\INCLUDE\SSTREAM
C:\PROGRAM FILES (X86)\MICROSOFT VISUAL STUDIO\2019\COMMUNITY\VC\TOOLS\MSVC\14.28.29333\INCLUDE\ISTREAM
C:\PROGRAM FILES (X86)\MICROSOFT VISUAL STUDIO\2019\COMMUNITY\VC\TOOLS\MSVC\14.28.29333\INCLUDE\OSTREAM
C:\PROGRAM FILES (X86)\MICROSOFT VISUAL STUDIO\2019\COMMUNITY\VC\TOOLS\MSVC\14.28.29333\INCLUDE\IOS
C:\PROGRAM FILES (X86)\MICROSOFT VISUAL STUDIO\2019\COMMUNITY\VC\TOOLS\MSVC\14.28.29333\INCLUDE\XLOCNUM
C:\PROGRAM FILES (X86)\MICROSOFT VISUAL STUDIO\2019\COMMUNITY\VC\TOOLS\MSVC\14.28.29333\INCLUDE\ITERATOR
C:\PROGRAM FILES (X86)\MICROSOFT VISUAL STUDIO\2019\COMMUNITY\VC\TOOLS\MSVC\14.28.29333\INCLUDE\STREAMBUF
C:\PROGRAM FILES (X86)\MICROSOFT VISUAL STUDIO\2019\COMMUNITY\VC\TOOLS\MSVC\14.28.29333\INCLUDE\XIOSBASE
C:\PROGRAM FILES (X86)\WINDOWS KITS\10\INCLUDE\10.0.18362.0\UCRT\SHARE.H
C:\PROGRAM FILES (X86)\MICROSOFT VISUAL STUDIO\2019\COMMUNITY\VC\TOOLS\MSVC\14.28.29333\INCLUDE\SYSTEM_ERROR
C:\PROGRAM FILES (X86)\MICROSOFT VISUAL STUDIO\2019\COMMUNITY\VC\TOOLS\MSVC\14.28.29333\INCLUDE\__MSVC_SYSTEM_ERROR_ABI.HPP
C:\PROGRAM FILES (X86)\MICROSOFT VISUAL STUDIO\2019\COMMUNITY\VC\TOOLS\MSVC\14.28.29333\INCLUDE\CERRNO
C:\PROGRAM FILES (X86)\MICROSOFT VISUAL STUDIO\2019\COMMUNITY\VC\TOOLS\MSVC\14.28.29333\INCLUDE\STDEXCEPT
C:\PROGRAM FILES (X86)\MICROSOFT VISUAL STUDIO\2019\COMMUNITY\VC\TOOLS\MSVC\14.28.29333\INCLUDE\XCALL_ONCE.H
C:\PROGRAM FILES (X86)\MICROSOFT VISUAL STUDIO\2019\COMMUNITY\VC\TOOLS\MSVC\14.28.29333\INCLUDE\XERRC.H
C:\PROGRAM FILES (X86)\MICROSOFT VISUAL STUDIO\2019\COMMUNITY\VC\TOOLS\MSVC\14.28.29333\INCLUDE\ATOMIC
C:\PROGRAM FILES (X86)\MICROSOFT VISUAL STUDIO\2019\COMMUNITY\VC\TOOLS\MSVC\14.28.29333\INCLUDE\XTHREADS.H
C:\PROGRAM FILES (X86)\MICROSOFT VISUAL STUDIO\2019\COMMUNITY\VC\TOOLS\MSVC\14.28.29333\INCLUDE\XTIMEC.H
C:\PROGRAM FILES (X86)\WINDOWS KITS\10\INCLUDE\10.0.18362.0\UCRT\TIME.H
C:\PROGRAM FILES (X86)\MICROSOFT VISUAL STUDIO\2019\COMMUNITY\VC\TOOLS\MSVC\14.28.29333\INCLUDE\XLOCALE
C:\PROGRAM FILES (X86)\MICROSOFT VISUAL STUDIO\2019\COMMUNITY\VC\TOOLS\MSVC\14.28.29333\INCLUDE\MEMORY
C:\PROGRAM FILES (X86)\MICROSOFT VISUAL STUDIO\2019\COMMUNITY\VC\TOOLS\MSVC\14.28.29333\INCLUDE\TYPEINFO
C:\PROGRAM FILES (X86)\MICROSOFT VISUAL STUDIO\2019\COMMUNITY\VC\TOOLS\MSVC\14.28.29333\INCLUDE\VCRUNTIME_TYPEINFO.H
C:\PROGRAM FILES (X86)\MICROSOFT VISUAL STUDIO\2019\COMMUNITY\VC\TOOLS\MSVC\14.28.29333\INCLUDE\XFACET
C:\PROGRAM FILES (X86)\MICROSOFT VISUAL STUDIO\2019\COMMUNITY\VC\TOOLS\MSVC\14.28.29333\INCLUDE\XLOCINFO
C:\PROGRAM FILES (X86)\MICROSOFT VISUAL STUDIO\2019\COMMUNITY\VC\TOOLS\MSVC\14.28.29333\INCLUDE\XLOCINFO.H
C:\PROGRAM FILES (X86)\WINDOWS KITS\10\INCLUDE\10.0.18362.0\UCRT\LOCALE.H
C:\PROGRAM FILES (X86)\MICROSOFT VISUAL STUDIO\2019\COMMUNITY\VC\TOOLS\MSVC\14.28.29333\INCLUDE\YMATH.H
C:\USERS\NIKOL\DOCUMENTS\RGRV_RESOURCES\OPENCV-3.4.4_X64\INCLUDE\OPENCV2\CORE\UTILITY.HPP
C:\PROGRAM FILES (X86)\MICROSOFT VISUAL STUDIO\2019\COMMUNITY\VC\TOOLS\MSVC\14.28.29333\INCLUDE\FUNCTIONAL
C:\PROGRAM FILES (X86)\MICROSOFT VISUAL STUDIO\2019\COMMUNITY\VC\TOOLS\MSVC\14.28.29333\INCLUDE\TUPLE
C:\USERS\NIKOL\DOCUMENTS\RGRV_RESOURCES\OPENCV-3.4.4_X64\INCLUDE\OPENCV2\CORE\CORE_C.H
C:\USERS\NIKOL\DOCUMENTS\RGRV_RESOURCES\OPENCV-3.4.4_X64\INCLUDE\OPENCV2\CORE\TYPES_C.H
C:\USERS\NIKOL\DOCUMENTS\RGRV_RESOURCES\OPENCV-3.4.4_X64\INCLUDE\OPENCV2\CORE\OPTIM.HPP
C:\USERS\NIKOL\DOCUMENTS\RGRV_RESOURCES\OPENCV-3.4.4_X64\INCLUDE\OPENCV2\CORE\OVX.HPP
C:\USERS\NIKOL\DOCUMENTS\RGRV_RESOURCES\OPENCV-3.4.4_X64\INCLUDE\OPENCV2\CALIB3D.HPP
C:\USERS\NIKOL\DOCUMENTS\RGRV_RESOURCES\OPENCV-3.4.4_X64\INCLUDE\OPENCV2\FEATURES2D.HPP
C:\USERS\NIKOL\DOCUMENTS\RGRV_RESOURCES\OPENCV-3.4.4_X64\INCLUDE\OPENCV2\FLANN\MINIFLANN.HPP
C:\USERS\NIKOL\DOCUMENTS\RGRV_RESOURCES\OPENCV-3.4.4_X64\INCLUDE\OPENCV2\FLANN\DEFINES.H
C:\USERS\NIKOL\DOCUMENTS\RGRV_RESOURCES\OPENCV-3.4.4_X64\INCLUDE\OPENCV2\FLANN\CONFIG.H
C:\USERS\NIKOL\DOCUMENTS\RGRV_RESOURCES\OPENCV-3.4.4_X64\INCLUDE\OPENCV2\CORE\AFFINE.HPP
C:\USERS\NIKOL\DOCUMENTS\RGRV_RESOURCES\OPENCV-3.4.4_X64\INCLUDE\OPENCV2\CALIB3D\CALIB3D_C.H
C:\USERS\NIKOL\DOCUMENTS\RGRV_RESOURCES\OPENCV-3.4.4_X64\INCLUDE\OPENCV2\DNN.HPP
C:\USERS\NIKOL\DOCUMENTS\RGRV_RESOURCES\OPENCV-3.4.4_X64\INCLUDE\OPENCV2\DNN\DNN.HPP
C:\USERS\NIKOL\DOCUMENTS\RGRV_RESOURCES\OPENCV-3.4.4_X64\INCLUDE\OPENCV2\DNN\DICT.HPP
C:\PROGRAM FILES (X86)\MICROSOFT VISUAL STUDIO\2019\COMMUNITY\VC\TOOLS\MSVC\14.28.29333\INCLUDE\MAP
C:\PROGRAM FILES (X86)\MICROSOFT VISUAL STUDIO\2019\COMMUNITY\VC\TOOLS\MSVC\14.28.29333\INCLUDE\XTREE
C:\USERS\NIKOL\DOCUMENTS\RGRV_RESOURCES\OPENCV-3.4.4_X64\INCLUDE\OPENCV2\DNN\LAYER.HPP
C:\USERS\NIKOL\DOCUMENTS\RGRV_RESOURCES\OPENCV-3.4.4_X64\INCLUDE\OPENCV2\DNN\DNN.INL.HPP
C:\USERS\NIKOL\DOCUMENTS\RGRV_RESOURCES\OPENCV-3.4.4_X64\INCLUDE\OPENCV2\FLANN.HPP
C:\USERS\NIKOL\DOCUMENTS\RGRV_RESOURCES\OPENCV-3.4.4_X64\INCLUDE\OPENCV2\FLANN\FLANN_BASE.HPP
C:\PROGRAM FILES (X86)\MICROSOFT VISUAL STUDIO\2019\COMMUNITY\VC\TOOLS\MSVC\14.28.29333\INCLUDE\CASSERT
C:\USERS\NIKOL\DOCUMENTS\RGRV_RESOURCES\OPENCV-3.4.4_X64\INCLUDE\OPENCV2\FLANN\GENERAL.H
C:\USERS\NIKOL\DOCUMENTS\RGRV_RESOURCES\OPENCV-3.4.4_X64\INCLUDE\OPENCV2\FLANN\MATRIX.H
C:\USERS\NIKOL\DOCUMENTS\RGRV_RESOURCES\OPENCV-3.4.4_X64\INCLUDE\OPENCV2\FLANN\PARAMS.H
C:\USERS\NIKOL\DOCUMENTS\RGRV_RESOURCES\OPENCV-3.4.4_X64\INCLUDE\OPENCV2\FLANN\ANY.H
C:\PROGRAM FILES (X86)\MICROSOFT VISUAL STUDIO\2019\COMMUNITY\VC\TOOLS\MSVC\14.28.29333\INCLUDE\IOSTREAM
C:\USERS\NIKOL\DOCUMENTS\RGRV_RESOURCES\OPENCV-3.4.4_X64\INCLUDE\OPENCV2\FLANN\SAVING.H
C:\USERS\NIKOL\DOCUMENTS\RGRV_RESOURCES\OPENCV-3.4.4_X64\INCLUDE\OPENCV2\FLANN\NN_INDEX.H
C:\USERS\NIKOL\DOCUMENTS\RGRV_RESOURCES\OPENCV-3.4.4_X64\INCLUDE\OPENCV2\FLANN\RESULT_SET.H
C:\PROGRAM FILES (X86)\MICROSOFT VISUAL STUDIO\2019\COMMUNITY\VC\TOOLS\MSVC\14.28.29333\INCLUDE\SET
C:\USERS\NIKOL\DOCUMENTS\RGRV_RESOURCES\OPENCV-3.4.4_X64\INCLUDE\OPENCV2\FLANN\ALL_INDICES.H
C:\USERS\NIKOL\DOCUMENTS\RGRV_RESOURCES\OPENCV-3.4.4_X64\INCLUDE\OPENCV2\FLANN\KDTREE_INDEX.H
C:\USERS\NIKOL\DOCUMENTS\RGRV_RESOURCES\OPENCV-3.4.4_X64\INCLUDE\OPENCV2\FLANN\DYNAMIC_BITSET.H
C:\USERS\NIKOL\DOCUMENTS\RGRV_RESOURCES\OPENCV-3.4.4_X64\INCLUDE\OPENCV2\FLANN\DIST.H
C:\USERS\NIKOL\DOCUMENTS\RGRV_RESOURCES\OPENCV-3.4.4_X64\INCLUDE\OPENCV2\FLANN\HEAP.H
C:\USERS\NIKOL\DOCUMENTS\RGRV_RESOURCES\OPENCV-3.4.4_X64\INCLUDE\OPENCV2\FLANN\ALLOCATOR.H
C:\USERS\NIKOL\DOCUMENTS\RGRV_RESOURCES\OPENCV-3.4.4_X64\INCLUDE\OPENCV2\FLANN\RANDOM.H
C:\USERS\NIKOL\DOCUMENTS\RGRV_RESOURCES\OPENCV-3.4.4_X64\INCLUDE\OPENCV2\FLANN\KDTREE_SINGLE_INDEX.H
C:\USERS\NIKOL\DOCUMENTS\RGRV_RESOURCES\OPENCV-3.4.4_X64\INCLUDE\OPENCV2\FLANN\KMEANS_INDEX.H
C:\USERS\NIKOL\DOCUMENTS\RGRV_RESOURCES\OPENCV-3.4.4_X64\INCLUDE\OPENCV2\FLANN\LOGGER.H
C:\PROGRAM FILES (X86)\MICROSOFT VISUAL STUDIO\2019\COMMUNITY\VC\TOOLS\MSVC\14.28.29333\INCLUDE\STDARG.H
C:\USERS\NIKOL\DOCUMENTS\RGRV_RESOURCES\OPENCV-3.4.4_X64\INCLUDE\OPENCV2\FLANN\COMPOSITE_INDEX.H
C:\USERS\NIKOL\DOCUMENTS\RGRV_RESOURCES\OPENCV-3.4.4_X64\INCLUDE\OPENCV2\FLANN\LINEAR_INDEX.H
C:\USERS\NIKOL\DOCUMENTS\RGRV_RESOURCES\OPENCV-3.4.4_X64\INCLUDE\OPENCV2\FLANN\HIERARCHICAL_CLUSTERING_INDEX.H
C:\USERS\NIKOL\DOCUMENTS\RGRV_RESOURCES\OPENCV-3.4.4_X64\INCLUDE\OPENCV2\FLANN\LSH_INDEX.H
C:\USERS\NIKOL\DOCUMENTS\RGRV_RESOURCES\OPENCV-3.4.4_X64\INCLUDE\OPENCV2\FLANN\LSH_TABLE.H
C:\PROGRAM FILES (X86)\MICROSOFT VISUAL STUDIO\2019\COMMUNITY\VC\TOOLS\MSVC\14.28.29333\INCLUDE\IOMANIP
C:\PROGRAM FILES (X86)\MICROSOFT VISUAL STUDIO\2019\COMMUNITY\VC\TOOLS\MSVC\14.28.29333\INCLUDE\XLOCMON
C:\PROGRAM FILES (X86)\MICROSOFT VISUAL STUDIO\2019\COMMUNITY\VC\TOOLS\MSVC\14.28.29333\INCLUDE\XLOCTIME
C:\PROGRAM FILES (X86)\MICROSOFT VISUAL STUDIO\2019\COMMUNITY\VC\TOOLS\MSVC\14.28.29333\INCLUDE\CTIME
C:\USERS\NIKOL\DOCUMENTS\RGRV_RESOURCES\OPENCV-3.4.4_X64\INCLUDE\OPENCV2\FLANN\AUTOTUNED_INDEX.H
C:\USERS\NIKOL\DOCUMENTS\RGRV_RESOURCES\OPENCV-3.4.4_X64\INCLUDE\OPENCV2\FLANN\GROUND_TRUTH.H
C:\USERS\NIKOL\DOCUMENTS\RGRV_RESOURCES\OPENCV-3.4.4_X64\INCLUDE\OPENCV2\FLANN\INDEX_TESTING.H
C:\USERS\NIKOL\DOCUMENTS\RGRV_RESOURCES\OPENCV-3.4.4_X64\INCLUDE\OPENCV2\FLANN\TIMER.H
C:\USERS\NIKOL\DOCUMENTS\RGRV_RESOURCES\OPENCV-3.4.4_X64\INCLUDE\OPENCV2\FLANN\SAMPLING.H
C:\USERS\NIKOL\DOCUMENTS\RGRV_RESOURCES\OPENCV-3.4.4_X64\INCLUDE\OPENCV2\HIGHGUI.HPP
C:\USERS\NIKOL\DOCUMENTS\RGRV_RESOURCES\OPENCV-3.4.4_X64\INCLUDE\OPENCV2\IMGCODECS.HPP
C:\USERS\NIKOL\DOCUMENTS\RGRV_RESOURCES\OPENCV-3.4.4_X64\INCLUDE\OPENCV2\VIDEOIO.HPP
C:\USERS\NIKOL\DOCUMENTS\RGRV_RESOURCES\OPENCV-3.4.4_X64\INCLUDE\OPENCV2\HIGHGUI\HIGHGUI_C.H
C:\USERS\NIKOL\DOCUMENTS\RGRV_RESOURCES\OPENCV-3.4.4_X64\INCLUDE\OPENCV2\IMGPROC\IMGPROC_C.H
C:\USERS\NIKOL\DOCUMENTS\RGRV_RESOURCES\OPENCV-3.4.4_X64\INCLUDE\OPENCV2\IMGPROC\TYPES_C.H
C:\USERS\NIKOL\DOCUMENTS\RGRV_RESOURCES\OPENCV-3.4.4_X64\INCLUDE\OPENCV2\IMGCODECS\IMGCODECS_C.H
C:\USERS\NIKOL\DOCUMENTS\RGRV_RESOURCES\OPENCV-3.4.4_X64\INCLUDE\OPENCV2\VIDEOIO\VIDEOIO_C.H
C:\USERS\NIKOL\DOCUMENTS\RGRV_RESOURCES\OPENCV-3.4.4_X64\INCLUDE\OPENCV2\IMGPROC.HPP
C:\USERS\NIKOL\DOCUMENTS\RGRV_RESOURCES\OPENCV-3.4.4_X64\INCLUDE\OPENCV2\ML.HPP
C:\USERS\NIKOL\DOCUMENTS\RGRV_RESOURCES\OPENCV-3.4.4_X64\INCLUDE\OPENCV2\ML\ML.INL.HPP
C:\USERS\NIKOL\DOCUMENTS\RGRV_RESOURCES\OPENCV-3.4.4_X64\INCLUDE\OPENCV2\OBJDETECT.HPP
C:\USERS\NIKOL\DOCUMENTS\RGRV_RESOURCES\OPENCV-3.4.4_X64\INCLUDE\OPENCV2\OBJDETECT\DETECTION_BASED_TRACKER.HPP
C:\USERS\NIKOL\DOCUMENTS\RGRV_RESOURCES\OPENCV-3.4.4_X64\INCLUDE\OPENCV2\OBJDETECT\OBJDETECT_C.H
C:\PROGRAM FILES (X86)\MICROSOFT VISUAL STUDIO\2019\COMMUNITY\VC\TOOLS\MSVC\14.28.29333\INCLUDE\DEQUE
C:\USERS\NIKOL\DOCUMENTS\RGRV_RESOURCES\OPENCV-3.4.4_X64\INCLUDE\OPENCV2\PHOTO.HPP
C:\USERS\NIKOL\DOCUMENTS\RGRV_RESOURCES\OPENCV-3.4.4_X64\INCLUDE\OPENCV2\PHOTO\PHOTO_C.H
C:\USERS\NIKOL\DOCUMENTS\RGRV_RESOURCES\OPENCV-3.4.4_X64\INCLUDE\OPENCV2\SHAPE.HPP
C:\USERS\NIKOL\DOCUMENTS\RGRV_RESOURCES\OPENCV-3.4.4_X64\INCLUDE\OPENCV2\SHAPE\EMDL1.HPP
C:\USERS\NIKOL\DOCUMENTS\RGRV_RESOURCES\OPENCV-3.4.4_X64\INCLUDE\OPENCV2\SHAPE\SHAPE_TRANSFORMER.HPP
C:\USERS\NIKOL\DOCUMENTS\RGRV_RESOURCES\OPENCV-3.4.4_X64\INCLUDE\OPENCV2\SHAPE\HIST_COST.HPP
C:\USERS\NIKOL\DOCUMENTS\RGRV_RESOURCES\OPENCV-3.4.4_X64\INCLUDE\OPENCV2\SHAPE\SHAPE_DISTANCE.HPP
C:\USERS\NIKOL\DOCUMENTS\RGRV_RESOURCES\OPENCV-3.4.4_X64\INCLUDE\OPENCV2\STITCHING.HPP
C:\USERS\NIKOL\DOCUMENTS\RGRV_RESOURCES\OPENCV-3.4.4_X64\INCLUDE\OPENCV2\STITCHING\WARPERS.HPP
C:\USERS\NIKOL\DOCUMENTS\RGRV_RESOURCES\OPENCV-3.4.4_X64\INCLUDE\OPENCV2\STITCHING\DETAIL\WARPERS.HPP
C:\USERS\NIKOL\DOCUMENTS\RGRV_RESOURCES\OPENCV-3.4.4_X64\INCLUDE\OPENCV2\CORE\CUDA.HPP
C:\USERS\NIKOL\DOCUMENTS\RGRV_RESOURCES\OPENCV-3.4.4_X64\INCLUDE\OPENCV2\CORE\CUDA_TYPES.HPP
C:\USERS\NIKOL\DOCUMENTS\RGRV_RESOURCES\OPENCV-3.4.4_X64\INCLUDE\OPENCV2\CORE\CUDA.INL.HPP
C:\USERS\NIKOL\DOCUMENTS\RGRV_RESOURCES\OPENCV-3.4.4_X64\INCLUDE\OPENCV2\STITCHING\DETAIL\WARPERS_INL.HPP
C:\USERS\NIKOL\DOCUMENTS\RGRV_RESOURCES\OPENCV-3.4.4_X64\INCLUDE\OPENCV2\STITCHING\DETAIL\MATCHERS.HPP
C:\USERS\NIKOL\DOCUMENTS\RGRV_RESOURCES\OPENCV-3.4.4_X64\INCLUDE\OPENCV2\XFEATURES2D\CUDA.HPP
C:\USERS\NIKOL\DOCUMENTS\RGRV_RESOURCES\OPENCV-3.4.4_X64\INCLUDE\OPENCV2\STITCHING\DETAIL\MOTION_ESTIMATORS.HPP
C:\USERS\NIKOL\DOCUMENTS\RGRV_RESOURCES\OPENCV-3.4.4_X64\INCLUDE\OPENCV2\STITCHING\DETAIL\UTIL.HPP
C:\PROGRAM FILES (X86)\MICROSOFT VISUAL STUDIO\2019\COMMUNITY\VC\TOOLS\MSVC\14.28.29333\INCLUDE\LIST
C:\USERS\NIKOL\DOCUMENTS\RGRV_RESOURCES\OPENCV-3.4.4_X64\INCLUDE\OPENCV2\STITCHING\DETAIL\UTIL_INL.HPP
C:\PROGRAM FILES (X86)\MICROSOFT VISUAL STUDIO\2019\COMMUNITY\VC\TOOLS\MSVC\14.28.29333\INCLUDE\QUEUE
C:\USERS\NIKOL\DOCUMENTS\RGRV_RESOURCES\OPENCV-3.4.4_X64\INCLUDE\OPENCV2\STITCHING\DETAIL\CAMERA.HPP
C:\USERS\NIKOL\DOCUMENTS\RGRV_RESOURCES\OPENCV-3.4.4_X64\INCLUDE\OPENCV2\STITCHING\DETAIL\EXPOSURE_COMPENSATE.HPP
C:\USERS\NIKOL\DOCUMENTS\RGRV_RESOURCES\OPENCV-3.4.4_X64\INCLUDE\OPENCV2\STITCHING\DETAIL\SEAM_FINDERS.HPP
C:\USERS\NIKOL\DOCUMENTS\RGRV_RESOURCES\OPENCV-3.4.4_X64\INCLUDE\OPENCV2\STITCHING\DETAIL\BLENDERS.HPP
C:\USERS\NIKOL\DOCUMENTS\RGRV_RESOURCES\OPENCV-3.4.4_X64\INCLUDE\OPENCV2\SUPERRES.HPP
C:\USERS\NIKOL\DOCUMENTS\RGRV_RESOURCES\OPENCV-3.4.4_X64\INCLUDE\OPENCV2\SUPERRES\OPTICAL_FLOW.HPP
C:\USERS\NIKOL\DOCUMENTS\RGRV_RESOURCES\OPENCV-3.4.4_X64\INCLUDE\OPENCV2\VIDEO.HPP
C:\USERS\NIKOL\DOCUMENTS\RGRV_RESOURCES\OPENCV-3.4.4_X64\INCLUDE\OPENCV2\VIDEO\TRACKING.HPP
C:\USERS\NIKOL\DOCUMENTS\RGRV_RESOURCES\OPENCV-3.4.4_X64\INCLUDE\OPENCV2\VIDEO\BACKGROUND_SEGM.HPP
C:\USERS\NIKOL\DOCUMENTS\RGRV_RESOURCES\OPENCV-3.4.4_X64\INCLUDE\OPENCV2\VIDEO\TRACKING_C.H
C:\USERS\NIKOL\DOCUMENTS\RGRV_RESOURCES\OPENCV-3.4.4_X64\INCLUDE\OPENCV2\VIDEOSTAB.HPP
C:\USERS\NIKOL\DOCUMENTS\RGRV_RESOURCES\OPENCV-3.4.4_X64\INCLUDE\OPENCV2\VIDEOSTAB\STABILIZER.HPP
C:\USERS\NIKOL\DOCUMENTS\RGRV_RESOURCES\OPENCV-3.4.4_X64\INCLUDE\OPENCV2\VIDEOSTAB\GLOBAL_MOTION.HPP
C:\PROGRAM FILES (X86)\MICROSOFT VISUAL STUDIO\2019\COMMUNITY\VC\TOOLS\MSVC\14.28.29333\INCLUDE\FSTREAM
C:\USERS\NIKOL\DOCUMENTS\RGRV_RESOURCES\OPENCV-3.4.4_X64\INCLUDE\OPENCV2\VIDEOSTAB\OPTICAL_FLOW.HPP
C:\USERS\NIKOL\DOCUMENTS\RGRV_RESOURCES\OPENCV-3.4.4_X64\INCLUDE\OPENCV2\VIDEOSTAB\MOTION_CORE.HPP
C:\USERS\NIKOL\DOCUMENTS\RGRV_RESOURCES\OPENCV-3.4.4_X64\INCLUDE\OPENCV2\VIDEOSTAB\OUTLIER_REJECTION.HPP
C:\USERS\NIKOL\DOCUMENTS\RGRV_RESOURCES\OPENCV-3.4.4_X64\INCLUDE\OPENCV2\VIDEOSTAB\MOTION_STABILIZING.HPP
C:\USERS\NIKOL\DOCUMENTS\RGRV_RESOURCES\OPENCV-3.4.4_X64\INCLUDE\OPENCV2\VIDEOSTAB\FRAME_SOURCE.HPP
C:\USERS\NIKOL\DOCUMENTS\RGRV_RESOURCES\OPENCV-3.4.4_X64\INCLUDE\OPENCV2\VIDEOSTAB\LOG.HPP
C:\USERS\NIKOL\DOCUMENTS\RGRV_RESOURCES\OPENCV-3.4.4_X64\INCLUDE\OPENCV2\VIDEOSTAB\INPAINTING.HPP
C:\USERS\NIKOL\DOCUMENTS\RGRV_RESOURCES\OPENCV-3.4.4_X64\INCLUDE\OPENCV2\VIDEOSTAB\FAST_MARCHING.HPP
C:\USERS\NIKOL\DOCUMENTS\RGRV_RESOURCES\OPENCV-3.4.4_X64\INCLUDE\OPENCV2\VIDEOSTAB\FAST_MARCHING_INL.HPP
C:\USERS\NIKOL\DOCUMENTS\RGRV_RESOURCES\OPENCV-3.4.4_X64\INCLUDE\OPENCV2\VIDEOSTAB\DEBLURRING.HPP
C:\USERS\NIKOL\DOCUMENTS\RGRV_RESOURCES\OPENCV-3.4.4_X64\INCLUDE\OPENCV2\VIDEOSTAB\WOBBLE_SUPPRESSION.HPP
C:\USERS\NIKOL\DOCUMENTS\RGRV_RESOURCES\OPENCV-3.4.4_X64\INCLUDE\OPENCV2\VIDEOSTAB\RING_BUFFER.HPP
C:\USERS\NIKOL\DOCUMENTS\RGRV_RESOURCES\OPENCV-3.4.4_X64\INCLUDE\OPENCV2\XFEATURES2D.HPP
C:\USERS\NIKOL\DOCUMENTS\RGRV_RESOURCES\OPENCV-3.4.4_X64\INCLUDE\OPENCV2\XFEATURES2D\NONFREE.HPP
