^C:\USERS\NIKOLA\DOCUMENTS\RGRV\LV3\CAMERACALIB\CAMERACALIB\CAMERACALIB.CPP|C:\USERS\NIKOLA\DOCUMENTS\RGRV\LV3\CAMERACALIB\CAMERACALIB\STDAFX.CPP
C:\USERS\NIKOLA\DOCUMENTS\RGRV\LV3\CAMERACALIB\CAMERACALIB\X64\DEBUG\VC142.PDB
C:\USERS\NIKOLA\DOCUMENTS\RGRV\LV3\CAMERACALIB\CAMERACALIB\X64\DEBUG\VC142.IDB
C:\USERS\NIKOLA\DOCUMENTS\RGRV\LV3\CAMERACALIB\CAMERACALIB\X64\DEBUG\STDAFX.OBJ
C:\USERS\NIKOLA\DOCUMENTS\RGRV\LV3\CAMERACALIB\CAMERACALIB\X64\DEBUG\CAMERACALIB.OBJ
^C:\USERS\NIKOLA\DOCUMENTS\RGRV\LV3\CAMERACALIB\CAMERACALIB\STDAFX.CPP
C:\USERS\NIKOLA\DOCUMENTS\RGRV\LV3\CAMERACALIB\CAMERACALIB\X64\DEBUG\VC142.PDB
^C:\USERS\NIKOLA\DOCUMENTS\RGRV\LV3\CAMERACALIB\CAMERACALIB\CAMERACALIB.CPP|C:\USERS\NIKOLA\DOCUMENTS\RGRV\LV3\CAMERACALIB\CAMERACALIB\TURNOFF.CPP
C:\USERS\NIKOLA\DOCUMENTS\RGRV\LV3\CAMERACALIB\CAMERACALIB\X64\DEBUG\VC142.PDB
C:\USERS\NIKOLA\DOCUMENTS\RGRV\LV3\CAMERACALIB\CAMERACALIB\X64\DEBUG\VC142.IDB
C:\USERS\NIKOLA\DOCUMENTS\RGRV\LV3\CAMERACALIB\CAMERACALIB\X64\DEBUG\CAMERACALIB.OBJ
^C:\USERS\NIKOLA\DOCUMENTS\RGRV\LV3\CAMERACALIB\CAMERACALIB\CAMERACALIB.CPP
C:\USERS\NIKOLA\DOCUMENTS\RGRV\LV3\CAMERACALIB\CAMERACALIB\X64\DEBUG\VC142.PDB
C:\USERS\NIKOLA\DOCUMENTS\RGRV\LV3\CAMERACALIB\CAMERACALIB\X64\DEBUG\VC142.IDB
C:\USERS\NIKOLA\DOCUMENTS\RGRV\LV3\CAMERACALIB\CAMERACALIB\X64\DEBUG\CAMERACALIB.OBJ
