^C:\USERS\NIKOLA\DOCUMENTS\RGRV\RGRV\BODY.CPP|C:\USERS\NIKOLA\DOCUMENTS\RGRV\RGRV\DISPLAY.CPP|C:\USERS\NIKOLA\DOCUMENTS\RGRV\RGRV\LV1.CPP
C:\USERS\NIKOLA\DOCUMENTS\RGRV\RGRV\X64\DEBUG\VC142.PDB
C:\USERS\NIKOLA\DOCUMENTS\RGRV\RGRV\X64\DEBUG\VC142.IDB
C:\USERS\NIKOLA\DOCUMENTS\RGRV\RGRV\X64\DEBUG\LV1.OBJ
C:\USERS\NIKOLA\DOCUMENTS\RGRV\RGRV\X64\DEBUG\DISPLAY.OBJ
C:\USERS\NIKOLA\DOCUMENTS\RGRV\RGRV\X64\DEBUG\BODY.OBJ
^C:\USERS\NIKOLA\DOCUMENTS\RGRV\RGRV\BODY.CPP
C:\USERS\NIKOLA\DOCUMENTS\RGRV\RGRV\X64\DEBUG\VC142.PDB
^C:\USERS\NIKOLA\DOCUMENTS\RGRV\RGRV\DISPLAY.CPP
C:\USERS\NIKOLA\DOCUMENTS\RGRV\RGRV\X64\DEBUG\VC142.PDB
^C:\USERS\NIKOLA\DOCUMENTS\RGRV\RGRV\LV1.CPP
C:\USERS\NIKOLA\DOCUMENTS\RGRV\RGRV\X64\DEBUG\VC142.PDB
C:\USERS\NIKOLA\DOCUMENTS\RGRV\RGRV\X64\DEBUG\VC142.IDB
C:\USERS\NIKOLA\DOCUMENTS\RGRV\RGRV\X64\DEBUG\LV1.OBJ
